<svg xmlns="http://www.w3.org/2000/svg"
aria-label="NHSX" role="img"
viewBox="0 0 512 512"><rect
width="512" height="512"
rx="15%"
fill="#FFF"/><path fill="#176ebf" d="M427.2 339V173.4H16V339zM181.3 189.4L153 322.7h-44.5l-28-92.3H80l-18.6 92.3H27.6l28.6-133.3h44.7l27.5 92.4h.3l18.8-92.4zm127.4 0L281 322.7H245l12-57.1h-42.5l-11.9 57h-35.9l27.9-133.2h35.8l-10.5 51h42.4l10.6-51zm103 3.6l-8.6 26.5a68 68 0 0 0-29.5-6c-14.2 0-25.7 2-25.7 12.8 0 18.9 52 11.8 52 52.3 0 36.8-34.4 46.4-65.5 46.4-13.8 0-29.7-3.3-41.4-7l8.4-27a70 70 0 0 0 33 7.6c11.2 0 28.6-2 28.6-15.8 0-21.4-52-13.4-52-51 0-34.4 30.4-44.7 59.7-44.7 16.5 0 32 1.7 41 6M439.8 233.2h11.1l17-20.3 9.4 20.2h9.8L474.7 207l21.3-23.5h-10.6l-15.2 17.8-8.1-17.8h-9l10.6 23.3z"/></svg>